%YAML 1.1
%TAG !u! tag:unity3d.com,2011:
--- !u!1001 &315632459487649614
PrefabInstance:
  m_ObjectHideFlags: 0
  serializedVersion: 2
  m_Modification:
    m_TransformParent: {fileID: 0}
    m_Modifications:
    - target: {fileID: 6821840626652190864, guid: d64bbbe6c420bfb43adf7b1d2ac83cd6,
        type: 3}
      propertyPath: m_Name
      value: StretchBonusCollectable Variant
      objectReference: {fileID: 0}
    - target: {fileID: 1557539815009254466, guid: d64bbbe6c420bfb43adf7b1d2ac83cd6,
        type: 3}
      propertyPath: m_LocalPosition.x
      value: 0.41578954
      objectReference: {fileID: 0}
    - target: {fileID: 1557539815009254466, guid: d64bbbe6c420bfb43adf7b1d2ac83cd6,
        type: 3}
      propertyPath: m_LocalPosition.y
      value: 2.9483976
      objectReference: {fileID: 0}
    - target: {fileID: 1557539815009254466, guid: d64bbbe6c420bfb43adf7b1d2ac83cd6,
        type: 3}
      propertyPath: m_LocalPosition.z
      value: 0
      objectReference: {fileID: 0}
    - target: {fileID: 1557539815009254466, guid: d64bbbe6c420bfb43adf7b1d2ac83cd6,
        type: 3}
      propertyPath: m_LocalRotation.x
      value: 0
      objectReference: {fileID: 0}
    - target: {fileID: 1557539815009254466, guid: d64bbbe6c420bfb43adf7b1d2ac83cd6,
        type: 3}
      propertyPath: m_LocalRotation.y
      value: 0
      objectReference: {fileID: 0}
    - target: {fileID: 1557539815009254466, guid: d64bbbe6c420bfb43adf7b1d2ac83cd6,
        type: 3}
      propertyPath: m_LocalRotation.z
      value: 0
      objectReference: {fileID: 0}
    - target: {fileID: 1557539815009254466, guid: d64bbbe6c420bfb43adf7b1d2ac83cd6,
        type: 3}
      propertyPath: m_LocalRotation.w
      value: 1
      objectReference: {fileID: 0}
    - target: {fileID: 1557539815009254466, guid: d64bbbe6c420bfb43adf7b1d2ac83cd6,
        type: 3}
      propertyPath: m_RootOrder
      value: 0
      objectReference: {fileID: 0}
    - target: {fileID: 1557539815009254466, guid: d64bbbe6c420bfb43adf7b1d2ac83cd6,
        type: 3}
      propertyPath: m_LocalEulerAnglesHint.x
      value: 0
      objectReference: {fileID: 0}
    - target: {fileID: 1557539815009254466, guid: d64bbbe6c420bfb43adf7b1d2ac83cd6,
        type: 3}
      propertyPath: m_LocalEulerAnglesHint.y
      value: 0
      objectReference: {fileID: 0}
    - target: {fileID: 1557539815009254466, guid: d64bbbe6c420bfb43adf7b1d2ac83cd6,
        type: 3}
      propertyPath: m_LocalEulerAnglesHint.z
      value: 0
      objectReference: {fileID: 0}
    - target: {fileID: 1975620383175729568, guid: d64bbbe6c420bfb43adf7b1d2ac83cd6,
        type: 3}
      propertyPath: m_Sprite
      value: 
      objectReference: {fileID: 21300000, guid: cd2e430e89ee2474d859169661c3abae,
        type: 3}
    - target: {fileID: 2925598510426472801, guid: d64bbbe6c420bfb43adf7b1d2ac83cd6,
        type: 3}
      propertyPath: _bonusToSpawn
      value: 
      objectReference: {fileID: 2467834366034638491, guid: 4cdec0ea908b60847acbd60aaa8a14f5,
        type: 3}
    - target: {fileID: 8867623337138274307, guid: d64bbbe6c420bfb43adf7b1d2ac83cd6,
        type: 3}
      propertyPath: m_Text
      value: Stretch
      objectReference: {fileID: 0}
    m_RemovedComponents: []
  m_SourcePrefab: {fileID: 100100000, guid: d64bbbe6c420bfb43adf7b1d2ac83cd6, type: 3}
