%YAML 1.1
%TAG !u! tag:unity3d.com,2011:
--- !u!114 &8410485067294983921
MonoBehaviour:
  m_ObjectHideFlags: 0
  m_CorrespondingSourceObject: {fileID: 0}
  m_PrefabInstance: {fileID: 0}
  m_PrefabAsset: {fileID: 0}
  m_GameObject: {fileID: 3359752148236172001}
  m_Enabled: 1
  m_EditorHideFlags: 0
  m_Script: {fileID: 11500000, guid: dd77da4e76eff7542b9d148631045a6d, type: 3}
  m_Name: 
  m_EditorClassIdentifier: 
  Reached: 0
  SuperReached: 0
  Failed: 0
--- !u!1001 &4546798390092330848
PrefabInstance:
  m_ObjectHideFlags: 0
  serializedVersion: 2
  m_Modification:
    m_TransformParent: {fileID: 0}
    m_Modifications:
    - target: {fileID: 1277128714131180929, guid: 91d421c55fb448948954dff0ba05ced0,
        type: 3}
      propertyPath: m_Name
      value: GoalUIItem
      objectReference: {fileID: 0}
    - target: {fileID: 9140974117099744056, guid: 91d421c55fb448948954dff0ba05ced0,
        type: 3}
      propertyPath: m_LocalPosition.x
      value: 0
      objectReference: {fileID: 0}
    - target: {fileID: 9140974117099744056, guid: 91d421c55fb448948954dff0ba05ced0,
        type: 3}
      propertyPath: m_LocalPosition.y
      value: 0
      objectReference: {fileID: 0}
    - target: {fileID: 9140974117099744056, guid: 91d421c55fb448948954dff0ba05ced0,
        type: 3}
      propertyPath: m_LocalPosition.z
      value: 0
      objectReference: {fileID: 0}
    - target: {fileID: 9140974117099744056, guid: 91d421c55fb448948954dff0ba05ced0,
        type: 3}
      propertyPath: m_LocalRotation.x
      value: 0
      objectReference: {fileID: 0}
    - target: {fileID: 9140974117099744056, guid: 91d421c55fb448948954dff0ba05ced0,
        type: 3}
      propertyPath: m_LocalRotation.y
      value: 0
      objectReference: {fileID: 0}
    - target: {fileID: 9140974117099744056, guid: 91d421c55fb448948954dff0ba05ced0,
        type: 3}
      propertyPath: m_LocalRotation.z
      value: 0
      objectReference: {fileID: 0}
    - target: {fileID: 9140974117099744056, guid: 91d421c55fb448948954dff0ba05ced0,
        type: 3}
      propertyPath: m_LocalRotation.w
      value: 1
      objectReference: {fileID: 0}
    - target: {fileID: 9140974117099744056, guid: 91d421c55fb448948954dff0ba05ced0,
        type: 3}
      propertyPath: m_RootOrder
      value: 0
      objectReference: {fileID: 0}
    - target: {fileID: 9140974117099744056, guid: 91d421c55fb448948954dff0ba05ced0,
        type: 3}
      propertyPath: m_LocalEulerAnglesHint.x
      value: 0
      objectReference: {fileID: 0}
    - target: {fileID: 9140974117099744056, guid: 91d421c55fb448948954dff0ba05ced0,
        type: 3}
      propertyPath: m_LocalEulerAnglesHint.y
      value: 0
      objectReference: {fileID: 0}
    - target: {fileID: 9140974117099744056, guid: 91d421c55fb448948954dff0ba05ced0,
        type: 3}
      propertyPath: m_LocalEulerAnglesHint.z
      value: 0
      objectReference: {fileID: 0}
    - target: {fileID: 9140974117099744056, guid: 91d421c55fb448948954dff0ba05ced0,
        type: 3}
      propertyPath: m_AnchoredPosition.x
      value: 0
      objectReference: {fileID: 0}
    - target: {fileID: 9140974117099744056, guid: 91d421c55fb448948954dff0ba05ced0,
        type: 3}
      propertyPath: m_AnchoredPosition.y
      value: 0
      objectReference: {fileID: 0}
    - target: {fileID: 9140974117099744056, guid: 91d421c55fb448948954dff0ba05ced0,
        type: 3}
      propertyPath: m_SizeDelta.x
      value: 0
      objectReference: {fileID: 0}
    - target: {fileID: 9140974117099744056, guid: 91d421c55fb448948954dff0ba05ced0,
        type: 3}
      propertyPath: m_SizeDelta.y
      value: 0
      objectReference: {fileID: 0}
    - target: {fileID: 9140974117099744056, guid: 91d421c55fb448948954dff0ba05ced0,
        type: 3}
      propertyPath: m_AnchorMin.x
      value: 0
      objectReference: {fileID: 0}
    - target: {fileID: 9140974117099744056, guid: 91d421c55fb448948954dff0ba05ced0,
        type: 3}
      propertyPath: m_AnchorMin.y
      value: 0
      objectReference: {fileID: 0}
    - target: {fileID: 9140974117099744056, guid: 91d421c55fb448948954dff0ba05ced0,
        type: 3}
      propertyPath: m_AnchorMax.x
      value: 0
      objectReference: {fileID: 0}
    - target: {fileID: 9140974117099744056, guid: 91d421c55fb448948954dff0ba05ced0,
        type: 3}
      propertyPath: m_AnchorMax.y
      value: 0
      objectReference: {fileID: 0}
    - target: {fileID: 9140974117099744056, guid: 91d421c55fb448948954dff0ba05ced0,
        type: 3}
      propertyPath: m_Pivot.x
      value: 0.5
      objectReference: {fileID: 0}
    - target: {fileID: 9140974117099744056, guid: 91d421c55fb448948954dff0ba05ced0,
        type: 3}
      propertyPath: m_Pivot.y
      value: 0.5
      objectReference: {fileID: 0}
    - target: {fileID: 3669466605508939984, guid: 91d421c55fb448948954dff0ba05ced0,
        type: 3}
      propertyPath: m_textInfo.textComponent
      value: 
      objectReference: {fileID: 1005966707933685680}
    m_RemovedComponents: []
  m_SourcePrefab: {fileID: 100100000, guid: 91d421c55fb448948954dff0ba05ced0, type: 3}
--- !u!1 &3359752148236172001 stripped
GameObject:
  m_CorrespondingSourceObject: {fileID: 1277128714131180929, guid: 91d421c55fb448948954dff0ba05ced0,
    type: 3}
  m_PrefabInstance: {fileID: 4546798390092330848}
  m_PrefabAsset: {fileID: 0}
--- !u!114 &1005966707933685680 stripped
MonoBehaviour:
  m_CorrespondingSourceObject: {fileID: 3669466605508939984, guid: 91d421c55fb448948954dff0ba05ced0,
    type: 3}
  m_PrefabInstance: {fileID: 4546798390092330848}
  m_PrefabAsset: {fileID: 0}
  m_GameObject: {fileID: 0}
  m_Enabled: 1
  m_EditorHideFlags: 0
  m_Script: {fileID: 11500000, guid: f4688fdb7df04437aeb418b961361dc5, type: 3}
  m_Name: 
  m_EditorClassIdentifier: 
