%YAML 1.1
%TAG !u! tag:unity3d.com,2011:
--- !u!114 &11400000
MonoBehaviour:
  m_ObjectHideFlags: 0
  m_CorrespondingSourceObject: {fileID: 0}
  m_PrefabInstance: {fileID: 0}
  m_PrefabAsset: {fileID: 0}
  m_GameObject: {fileID: 0}
  m_Enabled: 1
  m_EditorHideFlags: 0
  m_Script: {fileID: 11500000, guid: 43a23d92982e87048a35e7faef41dcd5, type: 3}
  m_Name: Sticky
  m_EditorClassIdentifier: 
  Direction: 0
  AvailableGoalsCombination:
  - {fileID: 11400000, guid: 5bdf4be0b972d434a954f77265deb1f1, type: 2}
  - {fileID: 11400000, guid: 971b718a21e29b24e949f93a52f06a6f, type: 2}
  GoalsCombination: {fileID: 11400000, guid: 5bdf4be0b972d434a954f77265deb1f1, type: 2}
  Probability: 18
  GridSize: 1.4
  UsePlatfromGrid: 0
  LevelHeight: 350
  LevelWidth: 1
  MinPlatformDist: 1
  MaxPlatformDist: 1
  MinPlatformWidth: 2.5
  MaxPlatformWidth: 4
  PlatformWeights:
  - Type: 3
    Weight: 40
  - Type: 2
    Weight: 5
  - Type: 8
    Weight: 5
  PlatformWidthCurve:
    serializedVersion: 2
    m_Curve:
    - serializedVersion: 3
      time: 0
      value: 0.4993744
      inSlope: 2.1864853
      outSlope: 2.1864853
      tangentMode: 34
      weightedMode: 0
      inWeight: 0
      outWeight: 0.33333334
    - serializedVersion: 3
      time: 0.22916666
      value: 1.0004439
      inSlope: 0
      outSlope: 0
      tangentMode: 0
      weightedMode: 0
      inWeight: 0.33333334
      outWeight: 0.33333334
    - serializedVersion: 3
      time: 0.49583334
      value: 0.017349243
      inSlope: 0
      outSlope: 0
      tangentMode: 0
      weightedMode: 0
      inWeight: 0.33333334
      outWeight: 0.33333334
    - serializedVersion: 3
      time: 0.77
      value: 0.3999939
      inSlope: 0
      outSlope: 0
      tangentMode: 0
      weightedMode: 0
      inWeight: 0.33333334
      outWeight: 0.33333334
    - serializedVersion: 3
      time: 1
      value: 0
      inSlope: -1.7391038
      outSlope: -1.7391038
      tangentMode: 34
      weightedMode: 0
      inWeight: 0.33333334
      outWeight: 0
    m_PreInfinity: 2
    m_PostInfinity: 2
    m_RotationOrder: 4
  PlatformDistCurve:
    serializedVersion: 2
    m_Curve:
    - serializedVersion: 3
      time: 0
      value: 0.49999243
      inSlope: 0.8160932
      outSlope: 0.8160932
      tangentMode: 34
      weightedMode: 0
      inWeight: 0
      outWeight: 0.33333334
    - serializedVersion: 3
      time: 0.25
      value: 0.70401573
      inSlope: 0.0073168445
      outSlope: 0.0073168445
      tangentMode: 0
      weightedMode: 0
      inWeight: 0.33333334
      outWeight: 0.99999976
    - serializedVersion: 3
      time: 0.44099793
      value: 0.02101937
      inSlope: 0.04311026
      outSlope: 0.04311026
      tangentMode: 0
      weightedMode: 0
      inWeight: 0.33333334
      outWeight: 1
    - serializedVersion: 3
      time: 0.5862732
      value: 0.022636414
      inSlope: 0
      outSlope: 0
      tangentMode: 0
      weightedMode: 0
      inWeight: 0.33333334
      outWeight: 0.33333334
    - serializedVersion: 3
      time: 0.76
      value: 0.40000015
      inSlope: 0.0015821457
      outSlope: 0.0015821457
      tangentMode: 0
      weightedMode: 0
      inWeight: 0.33333334
      outWeight: 0.33333334
    - serializedVersion: 3
      time: 1
      value: 1
      inSlope: 2.4999993
      outSlope: 2.4999993
      tangentMode: 34
      weightedMode: 0
      inWeight: 0.33333334
      outWeight: 0
    m_PreInfinity: 2
    m_PostInfinity: 2
    m_RotationOrder: 4
