%YAML 1.1
%TAG !u! tag:unity3d.com,2011:
--- !u!114 &11400000
MonoBehaviour:
  m_ObjectHideFlags: 0
  m_CorrespondingSourceObject: {fileID: 0}
  m_PrefabInstance: {fileID: 0}
  m_PrefabAsset: {fileID: 0}
  m_GameObject: {fileID: 0}
  m_Enabled: 1
  m_EditorHideFlags: 0
  m_Script: {fileID: 11500000, guid: d098003efd0e58f4ab529501e394ec58, type: 3}
  m_Name: Trail8
  m_EditorClassIdentifier: 
  UISprite: {fileID: 21300000, guid: eacf77e60d5314c499f0a03414ee8ef4, type: 3}
  CustomizationItem: {fileID: 9145377279598871976, guid: d38eb324a5303f4408342c3338ceb306,
    type: 3}
  UnlockCost: 100
