%YAML 1.1
%TAG !u! tag:unity3d.com,2011:
--- !u!114 &11400000
MonoBehaviour:
  m_ObjectHideFlags: 0
  m_CorrespondingSourceObject: {fileID: 0}
  m_PrefabInstance: {fileID: 0}
  m_PrefabAsset: {fileID: 0}
  m_GameObject: {fileID: 0}
  m_Enabled: 1
  m_EditorHideFlags: 0
  m_Script: {fileID: 11500000, guid: d098003efd0e58f4ab529501e394ec58, type: 3}
  m_Name: Trail7
  m_EditorClassIdentifier: 
  UISprite: {fileID: 21300000, guid: ba8d3c4f0a44714428310d09d3bdc90a, type: 3}
  CustomizationItem: {fileID: 3555457245999102961, guid: bf69aab51b47d1240a8261d261a1ff2b,
    type: 3}
  UnlockCost: 100
