%YAML 1.1
%TAG !u! tag:unity3d.com,2011:
--- !u!78 &1
TagManager:
  serializedVersion: 2
  tags: []
  layers:
  - Default
  - TransparentFX
  - Ignore Raycast
  - 
  - Water
  - UI
  - 
  - 
  - 
  - 
  - Player
  - Camera
  - Platforms
  - 
  - 
  - Detector
  - Money
  - BlackHole
  - 
  - 
  - 
  - 
  - 
  - 
  - 
  - 
  - 
  - 
  - 
  - 
  - 
  - 
  m_SortingLayers:
  - name: Line
    uniqueID: 4171549845
    locked: 0
  - name: Default
    uniqueID: 0
    locked: 0
